" B " = 1
" I " = 1
" O " = 1
" j " = 1
" z " = 1
" : " = 1
" ; " = 1
" T " = 2
" " " = 2
" q " = 2
" k " = 4
" . " = 5
" v " = 6
" , " = 7
" 
 " = 9
" y " = 13
" f " = 14
" g " = 14
" b " = 15
" m " = 16
" p " = 18
" w " = 18
" c " = 23
" u " = 29
" l " = 34
" d " = 35
" h " = 44
" r " = 48
" i " = 55
" s " = 58
" n " = 59
" o " = 59
" a " = 60
" t " = 62
" e " = 117
"   " = 163
